([('main.exe',
   'C:\\Users\\julja\\Desktop\\DTY\\keylogger\\build\\main\\main.exe',
   'EXECUTABLE'),
  ('main.exe.manifest',
   'C:\\Users\\julja\\Desktop\\DTY\\keylogger\\build\\main\\main.exe.manifest',
   'BINARY'),
  ('VCRUNTIME140.dll',
   'c:\\users\\julja\\appdata\\local\\programs\\python\\python39\\VCRUNTIME140.dll',
   'BINARY'),
  ('python39.dll',
   'c:\\users\\julja\\appdata\\local\\programs\\python\\python39\\python39.dll',
   'BINARY'),
  ('libansari.R6EA3HQP5KZ6TAXU4Y4ZVTRPT7UVA53Z.gfortran-win_amd64.dll',
   'c:\\users\\julja\\appdata\\local\\programs\\python\\python39\\lib\\site-packages\\scipy\\.libs\\libansari.R6EA3HQP5KZ6TAXU4Y4ZVTRPT7UVA53Z.gfortran-win_amd64.dll',
   'BINARY'),
  ('libspecfun.LQCTHMCYNULEOOGKIO6AGREE6D6V37RU.gfortran-win_amd64.dll',
   'c:\\users\\julja\\appdata\\local\\programs\\python\\python39\\lib\\site-packages\\scipy\\.libs\\libspecfun.LQCTHMCYNULEOOGKIO6AGREE6D6V37RU.gfortran-win_amd64.dll',
   'BINARY'),
  ('libchkder.G7WSOGIYYQO3UWFVEZ3PPXCXR53ADVPA.gfortran-win_amd64.dll',
   'c:\\users\\julja\\appdata\\local\\programs\\python\\python39\\lib\\site-packages\\scipy\\.libs\\libchkder.G7WSOGIYYQO3UWFVEZ3PPXCXR53ADVPA.gfortran-win_amd64.dll',
   'BINARY'),
  ('lib_dop-f2p.3HWIZKD75YUXVW7GYVDBE4FCDUO4NUKG.gfortran-win_amd64.dll',
   'c:\\users\\julja\\appdata\\local\\programs\\python\\python39\\lib\\site-packages\\scipy\\.libs\\lib_dop-f2p.3HWIZKD75YUXVW7GYVDBE4FCDUO4NUKG.gfortran-win_amd64.dll',
   'BINARY'),
  ('_sounddevice_data\\portaudio-binaries\\README.md',
   'c:\\users\\julja\\appdata\\local\\programs\\python\\python39\\lib\\site-packages\\_sounddevice_data\\portaudio-binaries\\README.md',
   'BINARY'),
  ('libd_odr.T6HJADSG7NXVV53PGDPMBVBPNAY5DCRV.gfortran-win_amd64.dll',
   'c:\\users\\julja\\appdata\\local\\programs\\python\\python39\\lib\\site-packages\\scipy\\.libs\\libd_odr.T6HJADSG7NXVV53PGDPMBVBPNAY5DCRV.gfortran-win_amd64.dll',
   'BINARY'),
  ('lib_arpack-.OK6465BFOHXDMFH3NXOHUTABLFW6ORTH.gfortran-win_amd64.dll',
   'c:\\users\\julja\\appdata\\local\\programs\\python\\python39\\lib\\site-packages\\scipy\\.libs\\lib_arpack-.OK6465BFOHXDMFH3NXOHUTABLFW6ORTH.gfortran-win_amd64.dll',
   'BINARY'),
  ('libcobyla2.25EVUSEBAW7VKISARB7LO3UGZPN2HXE3.gfortran-win_amd64.dll',
   'c:\\users\\julja\\appdata\\local\\programs\\python\\python39\\lib\\site-packages\\scipy\\.libs\\libcobyla2.25EVUSEBAW7VKISARB7LO3UGZPN2HXE3.gfortran-win_amd64.dll',
   'BINARY'),
  ('libdqag.T72IVSWBZWMEWPRL5GUSWXG7YX5SIDL7.gfortran-win_amd64.dll',
   'c:\\users\\julja\\appdata\\local\\programs\\python\\python39\\lib\\site-packages\\scipy\\.libs\\libdqag.T72IVSWBZWMEWPRL5GUSWXG7YX5SIDL7.gfortran-win_amd64.dll',
   'BINARY'),
  ('libblkdta00.Z3GYF4GUBRAGBA7HTIDJSL6GHRNSZC4A.gfortran-win_amd64.dll',
   'c:\\users\\julja\\appdata\\local\\programs\\python\\python39\\lib\\site-packages\\scipy\\.libs\\libblkdta00.Z3GYF4GUBRAGBA7HTIDJSL6GHRNSZC4A.gfortran-win_amd64.dll',
   'BINARY'),
  ('liblbfgsb.HQ462J2S775YLZ6OYJPNA7SNCTWTY6AB.gfortran-win_amd64.dll',
   'c:\\users\\julja\\appdata\\local\\programs\\python\\python39\\lib\\site-packages\\scipy\\.libs\\liblbfgsb.HQ462J2S775YLZ6OYJPNA7SNCTWTY6AB.gfortran-win_amd64.dll',
   'BINARY'),
  ('libnnls.4HUTGAJQTI623WTX372VAIIWXRLC62YU.gfortran-win_amd64.dll',
   'c:\\users\\julja\\appdata\\local\\programs\\python\\python39\\lib\\site-packages\\scipy\\.libs\\libnnls.4HUTGAJQTI623WTX372VAIIWXRLC62YU.gfortran-win_amd64.dll',
   'BINARY'),
  ('libwrap_dum.QAR7EKHNJKPFYLLEUOEPIWK73NUFV4MM.gfortran-win_amd64.dll',
   'c:\\users\\julja\\appdata\\local\\programs\\python\\python39\\lib\\site-packages\\scipy\\.libs\\libwrap_dum.QAR7EKHNJKPFYLLEUOEPIWK73NUFV4MM.gfortran-win_amd64.dll',
   'BINARY'),
  ('libmvndst.RDHNECQ4LTGAG44TTDYZZ5ZBHXLFUU6E.gfortran-win_amd64.dll',
   'c:\\users\\julja\\appdata\\local\\programs\\python\\python39\\lib\\site-packages\\scipy\\.libs\\libmvndst.RDHNECQ4LTGAG44TTDYZZ5ZBHXLFUU6E.gfortran-win_amd64.dll',
   'BINARY'),
  ('libdgamln.VG5XMDWZQXSTTZOVZ75VSDGH36PAWPBA.gfortran-win_amd64.dll',
   'c:\\users\\julja\\appdata\\local\\programs\\python\\python39\\lib\\site-packages\\scipy\\.libs\\libdgamln.VG5XMDWZQXSTTZOVZ75VSDGH36PAWPBA.gfortran-win_amd64.dll',
   'BINARY'),
  ('_sounddevice_data\\portaudio-binaries\\libportaudio64bit.dll',
   'c:\\users\\julja\\appdata\\local\\programs\\python\\python39\\lib\\site-packages\\_sounddevice_data\\portaudio-binaries\\libportaudio64bit.dll',
   'BINARY'),
  ('libbispeu.7AH3PCQ2E2NGLC3AQD7FFAH73KGJTZCJ.gfortran-win_amd64.dll',
   'c:\\users\\julja\\appdata\\local\\programs\\python\\python39\\lib\\site-packages\\scipy\\.libs\\libbispeu.7AH3PCQ2E2NGLC3AQD7FFAH73KGJTZCJ.gfortran-win_amd64.dll',
   'BINARY'),
  ('lib_test_fo.JF5HTWMUPBXWGAYEBVEJU3OZAHTSVKCT.gfortran-win_amd64.dll',
   'c:\\users\\julja\\appdata\\local\\programs\\python\\python39\\lib\\site-packages\\scipy\\.libs\\lib_test_fo.JF5HTWMUPBXWGAYEBVEJU3OZAHTSVKCT.gfortran-win_amd64.dll',
   'BINARY'),
  ('libdfitpack.VPRJUWUEP6U577QBCGTTCCFXB3222T4I.gfortran-win_amd64.dll',
   'c:\\users\\julja\\appdata\\local\\programs\\python\\python39\\lib\\site-packages\\scipy\\.libs\\libdfitpack.VPRJUWUEP6U577QBCGTTCCFXB3222T4I.gfortran-win_amd64.dll',
   'BINARY'),
  ('libbanded5x.UC7I2QORE7WXBZMGM667KLMAZ5BHRGMF.gfortran-win_amd64.dll',
   'c:\\users\\julja\\appdata\\local\\programs\\python\\python39\\lib\\site-packages\\scipy\\.libs\\libbanded5x.UC7I2QORE7WXBZMGM667KLMAZ5BHRGMF.gfortran-win_amd64.dll',
   'BINARY'),
  ('libwrap_dum.QD25TO26BDFHQJ5N4TUPA4PKC25WONPQ.gfortran-win_amd64.dll',
   'c:\\users\\julja\\appdata\\local\\programs\\python\\python39\\lib\\site-packages\\scipy\\.libs\\libwrap_dum.QD25TO26BDFHQJ5N4TUPA4PKC25WONPQ.gfortran-win_amd64.dll',
   'BINARY'),
  ('libdfft.54FN2NU3IPRPWIXGON3RLYGAIEEWI5VO.gfortran-win_amd64.dll',
   'c:\\users\\julja\\appdata\\local\\programs\\python\\python39\\lib\\site-packages\\scipy\\.libs\\libdfft.54FN2NU3IPRPWIXGON3RLYGAIEEWI5VO.gfortran-win_amd64.dll',
   'BINARY'),
  ('libdet.XIXUHWWL4FUSEATVU7X7BEVLZ7QPNYXT.gfortran-win_amd64.dll',
   'c:\\users\\julja\\appdata\\local\\programs\\python\\python39\\lib\\site-packages\\scipy\\.libs\\libdet.XIXUHWWL4FUSEATVU7X7BEVLZ7QPNYXT.gfortran-win_amd64.dll',
   'BINARY'),
  ('libopenblas.3HBPCJB5BPQGKWVZAVEBXNNJ2Q2G3TUP.gfortran-win_amd64.dll',
   'c:\\users\\julja\\appdata\\local\\programs\\python\\python39\\lib\\site-packages\\scipy\\.libs\\libopenblas.3HBPCJB5BPQGKWVZAVEBXNNJ2Q2G3TUP.gfortran-win_amd64.dll',
   'BINARY'),
  ('libslsqp_op.RGGN6ZOFD2K47X7YRNDYCM7JFP4AGLER.gfortran-win_amd64.dll',
   'c:\\users\\julja\\appdata\\local\\programs\\python\\python39\\lib\\site-packages\\scipy\\.libs\\libslsqp_op.RGGN6ZOFD2K47X7YRNDYCM7JFP4AGLER.gfortran-win_amd64.dll',
   'BINARY'),
  ('libopenblas.WCDJNK7YVMPZQ2ME2ZZHJJRJ3JIKNDB7.gfortran-win_amd64.dll',
   'c:\\users\\julja\\appdata\\local\\programs\\python\\python39\\lib\\site-packages\\numpy\\.libs\\libopenblas.WCDJNK7YVMPZQ2ME2ZZHJJRJ3JIKNDB7.gfortran-win_amd64.dll',
   'BINARY'),
  ('lib_blas_su.ZGZGBHY3USY2DZYMC6A7FXFYWQOXEGEU.gfortran-win_amd64.dll',
   'c:\\users\\julja\\appdata\\local\\programs\\python\\python39\\lib\\site-packages\\scipy\\.libs\\lib_blas_su.ZGZGBHY3USY2DZYMC6A7FXFYWQOXEGEU.gfortran-win_amd64.dll',
   'BINARY'),
  ('pywintypes39.dll',
   'c:\\users\\julja\\appdata\\local\\programs\\python\\python39\\lib\\site-packages\\pywin32_system32\\pywintypes39.dll',
   'BINARY'),
  ('pythoncom39.dll',
   'c:\\users\\julja\\appdata\\local\\programs\\python\\python39\\lib\\site-packages\\pywin32_system32\\pythoncom39.dll',
   'BINARY'),
  ('libvode-f2p.Z7T4MYZRC7MVAUK7R5P6DZADGJ7D4QHD.gfortran-win_amd64.dll',
   'c:\\users\\julja\\appdata\\local\\programs\\python\\python39\\lib\\site-packages\\scipy\\.libs\\libvode-f2p.Z7T4MYZRC7MVAUK7R5P6DZADGJ7D4QHD.gfortran-win_amd64.dll',
   'BINARY'),
  ('liblsoda-f2.SX63BSUSJ2W6PMO4GUM2XUWOUIYAX6DX.gfortran-win_amd64.dll',
   'c:\\users\\julja\\appdata\\local\\programs\\python\\python39\\lib\\site-packages\\scipy\\.libs\\liblsoda-f2.SX63BSUSJ2W6PMO4GUM2XUWOUIYAX6DX.gfortran-win_amd64.dll',
   'BINARY'),
  ('msvcp140.dll',
   'c:\\users\\julja\\appdata\\local\\programs\\python\\python39\\lib\\site-packages\\scipy\\.libs\\msvcp140.dll',
   'BINARY'),
  ('libdcsrch.I2AOPDCXAPDRFNPWY55H5UE7XZSU5CVN.gfortran-win_amd64.dll',
   'c:\\users\\julja\\appdata\\local\\programs\\python\\python39\\lib\\site-packages\\scipy\\.libs\\libdcsrch.I2AOPDCXAPDRFNPWY55H5UE7XZSU5CVN.gfortran-win_amd64.dll',
   'BINARY'),
  ('libgetbreak.WITV2EKEUBR7JIJUE2V7RRCPJZ5HFUMD.gfortran-win_amd64.dll',
   'c:\\users\\julja\\appdata\\local\\programs\\python\\python39\\lib\\site-packages\\scipy\\.libs\\libgetbreak.WITV2EKEUBR7JIJUE2V7RRCPJZ5HFUMD.gfortran-win_amd64.dll',
   'BINARY'),
  ('_decimal',
   'c:\\users\\julja\\appdata\\local\\programs\\python\\python39\\DLLs\\_decimal.pyd',
   'EXTENSION'),
  ('select',
   'c:\\users\\julja\\appdata\\local\\programs\\python\\python39\\DLLs\\select.pyd',
   'EXTENSION'),
  ('_overlapped',
   'c:\\users\\julja\\appdata\\local\\programs\\python\\python39\\DLLs\\_overlapped.pyd',
   'EXTENSION'),
  ('_asyncio',
   'c:\\users\\julja\\appdata\\local\\programs\\python\\python39\\DLLs\\_asyncio.pyd',
   'EXTENSION'),
  ('_queue',
   'c:\\users\\julja\\appdata\\local\\programs\\python\\python39\\DLLs\\_queue.pyd',
   'EXTENSION'),
  ('_ctypes',
   'c:\\users\\julja\\appdata\\local\\programs\\python\\python39\\DLLs\\_ctypes.pyd',
   'EXTENSION'),
  ('_multiprocessing',
   'c:\\users\\julja\\appdata\\local\\programs\\python\\python39\\DLLs\\_multiprocessing.pyd',
   'EXTENSION'),
  ('pyexpat',
   'c:\\users\\julja\\appdata\\local\\programs\\python\\python39\\DLLs\\pyexpat.pyd',
   'EXTENSION'),
  ('unicodedata',
   'c:\\users\\julja\\appdata\\local\\programs\\python\\python39\\DLLs\\unicodedata.pyd',
   'EXTENSION'),
  ('_hashlib',
   'c:\\users\\julja\\appdata\\local\\programs\\python\\python39\\DLLs\\_hashlib.pyd',
   'EXTENSION'),
  ('_lzma',
   'c:\\users\\julja\\appdata\\local\\programs\\python\\python39\\DLLs\\_lzma.pyd',
   'EXTENSION'),
  ('_bz2',
   'c:\\users\\julja\\appdata\\local\\programs\\python\\python39\\DLLs\\_bz2.pyd',
   'EXTENSION'),
  ('_ssl',
   'c:\\users\\julja\\appdata\\local\\programs\\python\\python39\\DLLs\\_ssl.pyd',
   'EXTENSION'),
  ('win32trace',
   'c:\\users\\julja\\appdata\\local\\programs\\python\\python39\\lib\\site-packages\\win32\\win32trace.pyd',
   'EXTENSION'),
  ('win32ui',
   'c:\\users\\julja\\appdata\\local\\programs\\python\\python39\\lib\\site-packages\\Pythonwin\\win32ui.pyd',
   'EXTENSION'),
  ('_win32sysloader',
   'c:\\users\\julja\\appdata\\local\\programs\\python\\python39\\lib\\site-packages\\win32\\_win32sysloader.pyd',
   'EXTENSION'),
  ('win32api',
   'c:\\users\\julja\\appdata\\local\\programs\\python\\python39\\lib\\site-packages\\win32\\win32api.pyd',
   'EXTENSION'),
  ('_uuid',
   'c:\\users\\julja\\appdata\\local\\programs\\python\\python39\\DLLs\\_uuid.pyd',
   'EXTENSION'),
  ('win32com.shell.shell',
   'c:\\users\\julja\\appdata\\local\\programs\\python\\python39\\lib\\site-packages\\win32comext\\shell\\shell.pyd',
   'EXTENSION'),
  ('PIL._webp',
   'c:\\users\\julja\\appdata\\local\\programs\\python\\python39\\lib\\site-packages\\PIL\\_webp.cp39-win_amd64.pyd',
   'EXTENSION'),
  ('PIL._imagingtk',
   'c:\\users\\julja\\appdata\\local\\programs\\python\\python39\\lib\\site-packages\\PIL\\_imagingtk.cp39-win_amd64.pyd',
   'EXTENSION'),
  ('_cffi_backend',
   'c:\\users\\julja\\appdata\\local\\programs\\python\\python39\\lib\\site-packages\\_cffi_backend.cp39-win_amd64.pyd',
   'EXTENSION'),
  ('PIL._imaging',
   'c:\\users\\julja\\appdata\\local\\programs\\python\\python39\\lib\\site-packages\\PIL\\_imaging.cp39-win_amd64.pyd',
   'EXTENSION'),
  ('_elementtree',
   'c:\\users\\julja\\appdata\\local\\programs\\python\\python39\\DLLs\\_elementtree.pyd',
   'EXTENSION'),
  ('PIL._imagingft',
   'c:\\users\\julja\\appdata\\local\\programs\\python\\python39\\lib\\site-packages\\PIL\\_imagingft.cp39-win_amd64.pyd',
   'EXTENSION'),
  ('simplejson._speedups',
   'c:\\users\\julja\\appdata\\local\\programs\\python\\python39\\lib\\site-packages\\simplejson\\_speedups.cp39-win_amd64.pyd',
   'EXTENSION'),
  ('cryptography.hazmat.bindings._openssl',
   'c:\\users\\julja\\appdata\\local\\programs\\python\\python39\\lib\\site-packages\\cryptography\\hazmat\\bindings\\_openssl.pyd',
   'EXTENSION'),
  ('bcrypt._bcrypt',
   'c:\\users\\julja\\appdata\\local\\programs\\python\\python39\\lib\\site-packages\\bcrypt\\_bcrypt.pyd',
   'EXTENSION'),
  ('cryptography.hazmat.bindings._padding',
   'c:\\users\\julja\\appdata\\local\\programs\\python\\python39\\lib\\site-packages\\cryptography\\hazmat\\bindings\\_padding.pyd',
   'EXTENSION'),
  ('numpy.core._multiarray_tests',
   'c:\\users\\julja\\appdata\\local\\programs\\python\\python39\\lib\\site-packages\\numpy\\core\\_multiarray_tests.cp39-win_amd64.pyd',
   'EXTENSION'),
  ('numpy.core._multiarray_umath',
   'c:\\users\\julja\\appdata\\local\\programs\\python\\python39\\lib\\site-packages\\numpy\\core\\_multiarray_umath.cp39-win_amd64.pyd',
   'EXTENSION'),
  ('win32pdh',
   'c:\\users\\julja\\appdata\\local\\programs\\python\\python39\\lib\\site-packages\\win32\\win32pdh.pyd',
   'EXTENSION'),
  ('numpy.linalg.lapack_lite',
   'c:\\users\\julja\\appdata\\local\\programs\\python\\python39\\lib\\site-packages\\numpy\\linalg\\lapack_lite.cp39-win_amd64.pyd',
   'EXTENSION'),
  ('numpy.random.mtrand',
   'c:\\users\\julja\\appdata\\local\\programs\\python\\python39\\lib\\site-packages\\numpy\\random\\mtrand.cp39-win_amd64.pyd',
   'EXTENSION'),
  ('numpy.random._sfc64',
   'c:\\users\\julja\\appdata\\local\\programs\\python\\python39\\lib\\site-packages\\numpy\\random\\_sfc64.cp39-win_amd64.pyd',
   'EXTENSION'),
  ('numpy.random._philox',
   'c:\\users\\julja\\appdata\\local\\programs\\python\\python39\\lib\\site-packages\\numpy\\random\\_philox.cp39-win_amd64.pyd',
   'EXTENSION'),
  ('numpy.random._pcg64',
   'c:\\users\\julja\\appdata\\local\\programs\\python\\python39\\lib\\site-packages\\numpy\\random\\_pcg64.cp39-win_amd64.pyd',
   'EXTENSION'),
  ('numpy.random._mt19937',
   'c:\\users\\julja\\appdata\\local\\programs\\python\\python39\\lib\\site-packages\\numpy\\random\\_mt19937.cp39-win_amd64.pyd',
   'EXTENSION'),
  ('numpy.random.bit_generator',
   'c:\\users\\julja\\appdata\\local\\programs\\python\\python39\\lib\\site-packages\\numpy\\random\\bit_generator.cp39-win_amd64.pyd',
   'EXTENSION'),
  ('numpy.random._generator',
   'c:\\users\\julja\\appdata\\local\\programs\\python\\python39\\lib\\site-packages\\numpy\\random\\_generator.cp39-win_amd64.pyd',
   'EXTENSION'),
  ('numpy.random._bounded_integers',
   'c:\\users\\julja\\appdata\\local\\programs\\python\\python39\\lib\\site-packages\\numpy\\random\\_bounded_integers.cp39-win_amd64.pyd',
   'EXTENSION'),
  ('numpy.random._common',
   'c:\\users\\julja\\appdata\\local\\programs\\python\\python39\\lib\\site-packages\\numpy\\random\\_common.cp39-win_amd64.pyd',
   'EXTENSION'),
  ('numpy.fft._pocketfft_internal',
   'c:\\users\\julja\\appdata\\local\\programs\\python\\python39\\lib\\site-packages\\numpy\\fft\\_pocketfft_internal.cp39-win_amd64.pyd',
   'EXTENSION'),
  ('numpy.linalg._umath_linalg',
   'c:\\users\\julja\\appdata\\local\\programs\\python\\python39\\lib\\site-packages\\numpy\\linalg\\_umath_linalg.cp39-win_amd64.pyd',
   'EXTENSION'),
  ('scipy._lib._ccallback_c',
   'c:\\users\\julja\\appdata\\local\\programs\\python\\python39\\lib\\site-packages\\scipy\\_lib\\_ccallback_c.cp39-win_amd64.pyd',
   'EXTENSION'),
  ('scipy.sparse.csgraph._tools',
   'c:\\users\\julja\\appdata\\local\\programs\\python\\python39\\lib\\site-packages\\scipy\\sparse\\csgraph\\_tools.cp39-win_amd64.pyd',
   'EXTENSION'),
  ('scipy.sparse.csgraph._reordering',
   'c:\\users\\julja\\appdata\\local\\programs\\python\\python39\\lib\\site-packages\\scipy\\sparse\\csgraph\\_reordering.cp39-win_amd64.pyd',
   'EXTENSION'),
  ('scipy.sparse.csgraph._matching',
   'c:\\users\\julja\\appdata\\local\\programs\\python\\python39\\lib\\site-packages\\scipy\\sparse\\csgraph\\_matching.cp39-win_amd64.pyd',
   'EXTENSION'),
  ('scipy.sparse.csgraph._flow',
   'c:\\users\\julja\\appdata\\local\\programs\\python\\python39\\lib\\site-packages\\scipy\\sparse\\csgraph\\_flow.cp39-win_amd64.pyd',
   'EXTENSION'),
  ('scipy.sparse.csgraph._min_spanning_tree',
   'c:\\users\\julja\\appdata\\local\\programs\\python\\python39\\lib\\site-packages\\scipy\\sparse\\csgraph\\_min_spanning_tree.cp39-win_amd64.pyd',
   'EXTENSION'),
  ('scipy.sparse.csgraph._traversal',
   'c:\\users\\julja\\appdata\\local\\programs\\python\\python39\\lib\\site-packages\\scipy\\sparse\\csgraph\\_traversal.cp39-win_amd64.pyd',
   'EXTENSION'),
  ('scipy.sparse.csgraph._shortest_path',
   'c:\\users\\julja\\appdata\\local\\programs\\python\\python39\\lib\\site-packages\\scipy\\sparse\\csgraph\\_shortest_path.cp39-win_amd64.pyd',
   'EXTENSION'),
  ('scipy.sparse._sparsetools',
   'c:\\users\\julja\\appdata\\local\\programs\\python\\python39\\lib\\site-packages\\scipy\\sparse\\_sparsetools.cp39-win_amd64.pyd',
   'EXTENSION'),
  ('scipy.sparse._csparsetools',
   'c:\\users\\julja\\appdata\\local\\programs\\python\\python39\\lib\\site-packages\\scipy\\sparse\\_csparsetools.cp39-win_amd64.pyd',
   'EXTENSION'),
  ('scipy._lib._fpumode',
   'c:\\users\\julja\\appdata\\local\\programs\\python\\python39\\lib\\site-packages\\scipy\\_lib\\_fpumode.cp39-win_amd64.pyd',
   'EXTENSION'),
  ('scipy._lib.messagestream',
   'c:\\users\\julja\\appdata\\local\\programs\\python\\python39\\lib\\site-packages\\scipy\\_lib\\messagestream.cp39-win_amd64.pyd',
   'EXTENSION'),
  ('scipy.io.matlab.streams',
   'c:\\users\\julja\\appdata\\local\\programs\\python\\python39\\lib\\site-packages\\scipy\\io\\matlab\\streams.cp39-win_amd64.pyd',
   'EXTENSION'),
  ('scipy.io.matlab.mio5_utils',
   'c:\\users\\julja\\appdata\\local\\programs\\python\\python39\\lib\\site-packages\\scipy\\io\\matlab\\mio5_utils.cp39-win_amd64.pyd',
   'EXTENSION'),
  ('scipy.io.matlab.mio_utils',
   'c:\\users\\julja\\appdata\\local\\programs\\python\\python39\\lib\\site-packages\\scipy\\io\\matlab\\mio_utils.cp39-win_amd64.pyd',
   'EXTENSION'),
  ('win32clipboard',
   'c:\\users\\julja\\appdata\\local\\programs\\python\\python39\\lib\\site-packages\\win32\\win32clipboard.pyd',
   'EXTENSION'),
  ('_socket',
   'c:\\users\\julja\\appdata\\local\\programs\\python\\python39\\DLLs\\_socket.pyd',
   'EXTENSION'),
  ('libffi-7.dll',
   'c:\\users\\julja\\appdata\\local\\programs\\python\\python39\\DLLs\\libffi-7.dll',
   'BINARY'),
  ('libcrypto-1_1.dll',
   'c:\\users\\julja\\appdata\\local\\programs\\python\\python39\\DLLs\\libcrypto-1_1.dll',
   'BINARY'),
  ('libssl-1_1.dll',
   'c:\\users\\julja\\appdata\\local\\programs\\python\\python39\\DLLs\\libssl-1_1.dll',
   'BINARY'),
  ('mfc140u.dll',
   'c:\\users\\julja\\appdata\\local\\programs\\python\\python39\\lib\\site-packages\\Pythonwin\\mfc140u.dll',
   'BINARY'),
  ('python3.dll',
   'c:\\users\\julja\\appdata\\local\\programs\\python\\python39\\python3.dll',
   'BINARY'),
  ('base_library.zip',
   'C:\\Users\\julja\\Desktop\\DTY\\keylogger\\build\\main\\base_library.zip',
   'DATA'),
  ('cryptography-3.4.6.dist-info\\top_level.txt',
   'c:\\users\\julja\\appdata\\local\\programs\\python\\python39\\lib\\site-packages\\cryptography-3.4.6.dist-info\\top_level.txt',
   'DATA'),
  ('certifi\\cacert.pem',
   'c:\\users\\julja\\appdata\\local\\programs\\python\\python39\\lib\\site-packages\\certifi\\cacert.pem',
   'DATA'),
  ('cryptography-3.4.6.dist-info\\LICENSE.BSD',
   'c:\\users\\julja\\appdata\\local\\programs\\python\\python39\\lib\\site-packages\\cryptography-3.4.6.dist-info\\LICENSE.BSD',
   'DATA'),
  ('cryptography-3.4.6.dist-info\\METADATA',
   'c:\\users\\julja\\appdata\\local\\programs\\python\\python39\\lib\\site-packages\\cryptography-3.4.6.dist-info\\METADATA',
   'DATA'),
  ('cryptography-3.4.6.dist-info\\LICENSE',
   'c:\\users\\julja\\appdata\\local\\programs\\python\\python39\\lib\\site-packages\\cryptography-3.4.6.dist-info\\LICENSE',
   'DATA'),
  ('cryptography-3.4.6.dist-info\\INSTALLER',
   'c:\\users\\julja\\appdata\\local\\programs\\python\\python39\\lib\\site-packages\\cryptography-3.4.6.dist-info\\INSTALLER',
   'DATA'),
  ('cryptography-3.4.6.dist-info\\LICENSE.APACHE',
   'c:\\users\\julja\\appdata\\local\\programs\\python\\python39\\lib\\site-packages\\cryptography-3.4.6.dist-info\\LICENSE.APACHE',
   'DATA'),
  ('cryptography-3.4.6.dist-info\\LICENSE.PSF',
   'c:\\users\\julja\\appdata\\local\\programs\\python\\python39\\lib\\site-packages\\cryptography-3.4.6.dist-info\\LICENSE.PSF',
   'DATA'),
  ('cryptography-3.4.6.dist-info\\WHEEL',
   'c:\\users\\julja\\appdata\\local\\programs\\python\\python39\\lib\\site-packages\\cryptography-3.4.6.dist-info\\WHEEL',
   'DATA'),
  ('cryptography-3.4.6.dist-info\\RECORD',
   'c:\\users\\julja\\appdata\\local\\programs\\python\\python39\\lib\\site-packages\\cryptography-3.4.6.dist-info\\RECORD',
   'DATA'),
  ('altgraph-0.17.dist-info\\LICENSE',
   'c:\\users\\julja\\appdata\\local\\programs\\python\\python39\\lib\\site-packages\\altgraph-0.17.dist-info\\LICENSE',
   'DATA'),
  ('altgraph-0.17.dist-info\\METADATA',
   'c:\\users\\julja\\appdata\\local\\programs\\python\\python39\\lib\\site-packages\\altgraph-0.17.dist-info\\METADATA',
   'DATA'),
  ('pip-21.0.1.dist-info\\RECORD',
   'c:\\users\\julja\\appdata\\local\\programs\\python\\python39\\lib\\site-packages\\pip-21.0.1.dist-info\\RECORD',
   'DATA'),
  ('pyinstaller-4.5.1.dist-info\\INSTALLER',
   'c:\\users\\julja\\appdata\\local\\programs\\python\\python39\\lib\\site-packages\\pyinstaller-4.5.1.dist-info\\INSTALLER',
   'DATA'),
  ('pyinstaller-4.5.1.dist-info\\RECORD',
   'c:\\users\\julja\\appdata\\local\\programs\\python\\python39\\lib\\site-packages\\pyinstaller-4.5.1.dist-info\\RECORD',
   'DATA'),
  ('wheel-0.36.2.dist-info\\INSTALLER',
   'c:\\users\\julja\\appdata\\local\\programs\\python\\python39\\lib\\site-packages\\wheel-0.36.2.dist-info\\INSTALLER',
   'DATA'),
  ('pyinstaller-4.5.1.dist-info\\top_level.txt',
   'c:\\users\\julja\\appdata\\local\\programs\\python\\python39\\lib\\site-packages\\pyinstaller-4.5.1.dist-info\\top_level.txt',
   'DATA'),
  ('wheel-0.36.2.dist-info\\RECORD',
   'c:\\users\\julja\\appdata\\local\\programs\\python\\python39\\lib\\site-packages\\wheel-0.36.2.dist-info\\RECORD',
   'DATA'),
  ('setuptools-49.2.1.dist-info\\METADATA',
   'c:\\users\\julja\\appdata\\local\\programs\\python\\python39\\lib\\site-packages\\setuptools-49.2.1.dist-info\\METADATA',
   'DATA'),
  ('pyinstaller-4.5.1.dist-info\\entry_points.txt',
   'c:\\users\\julja\\appdata\\local\\programs\\python\\python39\\lib\\site-packages\\pyinstaller-4.5.1.dist-info\\entry_points.txt',
   'DATA'),
  ('wheel-0.36.2.dist-info\\METADATA',
   'c:\\users\\julja\\appdata\\local\\programs\\python\\python39\\lib\\site-packages\\wheel-0.36.2.dist-info\\METADATA',
   'DATA'),
  ('setuptools-49.2.1.dist-info\\top_level.txt',
   'c:\\users\\julja\\appdata\\local\\programs\\python\\python39\\lib\\site-packages\\setuptools-49.2.1.dist-info\\top_level.txt',
   'DATA'),
  ('pyinstaller-4.5.1.dist-info\\METADATA',
   'c:\\users\\julja\\appdata\\local\\programs\\python\\python39\\lib\\site-packages\\pyinstaller-4.5.1.dist-info\\METADATA',
   'DATA'),
  ('wheel-0.36.2.dist-info\\top_level.txt',
   'c:\\users\\julja\\appdata\\local\\programs\\python\\python39\\lib\\site-packages\\wheel-0.36.2.dist-info\\top_level.txt',
   'DATA'),
  ('wheel-0.36.2.dist-info\\entry_points.txt',
   'c:\\users\\julja\\appdata\\local\\programs\\python\\python39\\lib\\site-packages\\wheel-0.36.2.dist-info\\entry_points.txt',
   'DATA'),
  ('pip-21.0.1.dist-info\\entry_points.txt',
   'c:\\users\\julja\\appdata\\local\\programs\\python\\python39\\lib\\site-packages\\pip-21.0.1.dist-info\\entry_points.txt',
   'DATA'),
  ('pyinstaller-4.5.1.dist-info\\REQUESTED',
   'c:\\users\\julja\\appdata\\local\\programs\\python\\python39\\lib\\site-packages\\pyinstaller-4.5.1.dist-info\\REQUESTED',
   'DATA'),
  ('altgraph-0.17.dist-info\\top_level.txt',
   'c:\\users\\julja\\appdata\\local\\programs\\python\\python39\\lib\\site-packages\\altgraph-0.17.dist-info\\top_level.txt',
   'DATA'),
  ('pip-21.0.1.dist-info\\REQUESTED',
   'c:\\users\\julja\\appdata\\local\\programs\\python\\python39\\lib\\site-packages\\pip-21.0.1.dist-info\\REQUESTED',
   'DATA'),
  ('altgraph-0.17.dist-info\\INSTALLER',
   'c:\\users\\julja\\appdata\\local\\programs\\python\\python39\\lib\\site-packages\\altgraph-0.17.dist-info\\INSTALLER',
   'DATA'),
  ('altgraph-0.17.dist-info\\zip-safe',
   'c:\\users\\julja\\appdata\\local\\programs\\python\\python39\\lib\\site-packages\\altgraph-0.17.dist-info\\zip-safe',
   'DATA'),
  ('wheel-0.36.2.dist-info\\WHEEL',
   'c:\\users\\julja\\appdata\\local\\programs\\python\\python39\\lib\\site-packages\\wheel-0.36.2.dist-info\\WHEEL',
   'DATA'),
  ('setuptools-49.2.1.dist-info\\RECORD',
   'c:\\users\\julja\\appdata\\local\\programs\\python\\python39\\lib\\site-packages\\setuptools-49.2.1.dist-info\\RECORD',
   'DATA'),
  ('pip-21.0.1.dist-info\\top_level.txt',
   'c:\\users\\julja\\appdata\\local\\programs\\python\\python39\\lib\\site-packages\\pip-21.0.1.dist-info\\top_level.txt',
   'DATA'),
  ('pip-21.0.1.dist-info\\WHEEL',
   'c:\\users\\julja\\appdata\\local\\programs\\python\\python39\\lib\\site-packages\\pip-21.0.1.dist-info\\WHEEL',
   'DATA'),
  ('pip-21.0.1.dist-info\\INSTALLER',
   'c:\\users\\julja\\appdata\\local\\programs\\python\\python39\\lib\\site-packages\\pip-21.0.1.dist-info\\INSTALLER',
   'DATA'),
  ('setuptools-49.2.1.dist-info\\dependency_links.txt',
   'c:\\users\\julja\\appdata\\local\\programs\\python\\python39\\lib\\site-packages\\setuptools-49.2.1.dist-info\\dependency_links.txt',
   'DATA'),
  ('pyinstaller-4.5.1.dist-info\\COPYING.txt',
   'c:\\users\\julja\\appdata\\local\\programs\\python\\python39\\lib\\site-packages\\pyinstaller-4.5.1.dist-info\\COPYING.txt',
   'DATA'),
  ('altgraph-0.17.dist-info\\RECORD',
   'c:\\users\\julja\\appdata\\local\\programs\\python\\python39\\lib\\site-packages\\altgraph-0.17.dist-info\\RECORD',
   'DATA'),
  ('setuptools-49.2.1.dist-info\\INSTALLER',
   'c:\\users\\julja\\appdata\\local\\programs\\python\\python39\\lib\\site-packages\\setuptools-49.2.1.dist-info\\INSTALLER',
   'DATA'),
  ('wheel-0.36.2.dist-info\\LICENSE.txt',
   'c:\\users\\julja\\appdata\\local\\programs\\python\\python39\\lib\\site-packages\\wheel-0.36.2.dist-info\\LICENSE.txt',
   'DATA'),
  ('altgraph-0.17.dist-info\\WHEEL',
   'c:\\users\\julja\\appdata\\local\\programs\\python\\python39\\lib\\site-packages\\altgraph-0.17.dist-info\\WHEEL',
   'DATA'),
  ('setuptools-49.2.1.dist-info\\WHEEL',
   'c:\\users\\julja\\appdata\\local\\programs\\python\\python39\\lib\\site-packages\\setuptools-49.2.1.dist-info\\WHEEL',
   'DATA'),
  ('setuptools-49.2.1.dist-info\\LICENSE',
   'c:\\users\\julja\\appdata\\local\\programs\\python\\python39\\lib\\site-packages\\setuptools-49.2.1.dist-info\\LICENSE',
   'DATA'),
  ('setuptools-49.2.1.dist-info\\entry_points.txt',
   'c:\\users\\julja\\appdata\\local\\programs\\python\\python39\\lib\\site-packages\\setuptools-49.2.1.dist-info\\entry_points.txt',
   'DATA'),
  ('pip-21.0.1.dist-info\\METADATA',
   'c:\\users\\julja\\appdata\\local\\programs\\python\\python39\\lib\\site-packages\\pip-21.0.1.dist-info\\METADATA',
   'DATA'),
  ('pyinstaller-4.5.1.dist-info\\WHEEL',
   'c:\\users\\julja\\appdata\\local\\programs\\python\\python39\\lib\\site-packages\\pyinstaller-4.5.1.dist-info\\WHEEL',
   'DATA'),
  ('pip-21.0.1.dist-info\\LICENSE.txt',
   'c:\\users\\julja\\appdata\\local\\programs\\python\\python39\\lib\\site-packages\\pip-21.0.1.dist-info\\LICENSE.txt',
   'DATA'),
  ('setuptools-49.2.1.dist-info\\REQUESTED',
   'c:\\users\\julja\\appdata\\local\\programs\\python\\python39\\lib\\site-packages\\setuptools-49.2.1.dist-info\\REQUESTED',
   'DATA'),
  ('setuptools-49.2.1.dist-info\\zip-safe',
   'c:\\users\\julja\\appdata\\local\\programs\\python\\python39\\lib\\site-packages\\setuptools-49.2.1.dist-info\\zip-safe',
   'DATA')],)
