('C:\\Users\\julja\\Desktop\\DTY\\keylogger\\build\\main\\PKG-00.pkg',
 {'BINARY': 1,
  'DATA': 1,
  'EXECUTABLE': 1,
  'EXTENSION': 1,
  'PYMODULE': 1,
  'PYSOURCE': 1,
  'PYZ': 0,
  'SPLASH': 1},
 [('PYZ-00.pyz',
   'C:\\Users\\julja\\Desktop\\DTY\\keylogger\\build\\main\\PYZ-00.pyz',
   'PYZ'),
  ('struct',
   'c:\\users\\julja\\appdata\\local\\programs\\python\\python39\\lib\\struct.pyo',
   'PYMODULE'),
  ('pyimod01_os_path',
   'c:\\users\\julja\\appdata\\local\\programs\\python\\python39\\lib\\site-packages\\PyInstaller\\loader\\pyimod01_os_path.pyc',
   'PYMODULE'),
  ('pyimod02_archive',
   'c:\\users\\julja\\appdata\\local\\programs\\python\\python39\\lib\\site-packages\\PyInstaller\\loader\\pyimod02_archive.pyc',
   'PYMODULE'),
  ('pyimod03_importers',
   'c:\\users\\julja\\appdata\\local\\programs\\python\\python39\\lib\\site-packages\\PyInstaller\\loader\\pyimod03_importers.pyc',
   'PYMODULE'),
  ('pyimod04_ctypes',
   'c:\\users\\julja\\appdata\\local\\programs\\python\\python39\\lib\\site-packages\\PyInstaller\\loader\\pyimod04_ctypes.pyc',
   'PYMODULE'),
  ('pyiboot01_bootstrap',
   'c:\\users\\julja\\appdata\\local\\programs\\python\\python39\\lib\\site-packages\\PyInstaller\\loader\\pyiboot01_bootstrap.py',
   'PYSOURCE'),
  ('pyi_rth_pkgutil',
   'C:\\Users\\julja\\AppData\\Local\\Programs\\Python\\Python39\\Lib\\site-packages\\PyInstaller\\hooks\\rthooks\\pyi_rth_pkgutil.py',
   'PYSOURCE'),
  ('pyi_rth_inspect',
   'C:\\Users\\julja\\AppData\\Local\\Programs\\Python\\Python39\\Lib\\site-packages\\PyInstaller\\hooks\\rthooks\\pyi_rth_inspect.py',
   'PYSOURCE'),
  ('pyi_rth_pkgres',
   'C:\\Users\\julja\\AppData\\Local\\Programs\\Python\\Python39\\Lib\\site-packages\\PyInstaller\\hooks\\rthooks\\pyi_rth_pkgres.py',
   'PYSOURCE'),
  ('pyi_rth_win32api',
   'C:\\Users\\julja\\AppData\\Local\\Programs\\Python\\Python39\\Lib\\site-packages\\PyInstaller\\hooks\\rthooks\\pyi_rth_win32api.py',
   'PYSOURCE'),
  ('pyi_rth_win32comgenpy',
   'C:\\Users\\julja\\AppData\\Local\\Programs\\Python\\Python39\\Lib\\site-packages\\PyInstaller\\hooks\\rthooks\\pyi_rth_win32comgenpy.py',
   'PYSOURCE'),
  ('pyi_rth_multiprocessing',
   'C:\\Users\\julja\\AppData\\Local\\Programs\\Python\\Python39\\Lib\\site-packages\\PyInstaller\\hooks\\rthooks\\pyi_rth_multiprocessing.py',
   'PYSOURCE'),
  ('pyi_rth_certifi',
   'C:\\Users\\julja\\AppData\\Local\\Programs\\Python\\Python39\\Lib\\site-packages\\_pyinstaller_hooks_contrib\\hooks\\rthooks\\pyi_rth_certifi.py',
   'PYSOURCE'),
  ('main', 'C:\\Users\\julja\\Desktop\\DTY\\keylogger\\main.py', 'PYSOURCE'),
  ('main.exe.manifest',
   'C:\\Users\\julja\\Desktop\\DTY\\keylogger\\build\\main\\main.exe.manifest',
   'BINARY')],
 True,
 False,
 False,
 [],
 None,
 None,
 None)
